{
    "report_meta": {
        "scan_target": "files",
        "scanned": [
            "requirements.txt"
        ],
        "scanned_full_path": [
            "C:\\Users\\gabri\\OneDrive\\Documentos\\devOps\\atividade-somativa-2\\requirements.txt"
        ],
        "target_languages": [
            "python"
        ],
        "policy_file": null,
        "policy_file_source": "local",
        "audit_and_monitor": false,
        "api_key": false,
        "account": "",
        "local_database_path": null,
        "safety_version": "3.2.0",
        "timestamp": "2024-05-02 19:28:03",
        "packages_found": 0,
        "vulnerabilities_found": 0,
        "vulnerabilities_ignored": 0,
        "remediations_recommended": 0,
        "telemetry": {
            "safety_options": {
                "files": {
                    "-r": 1
                },
                "json": {
                    "--json": 1
                }
            },
            "safety_version": "3.2.0",
            "safety_source": "cli",
            "os_type": "Windows",
            "os_release": "11",
            "os_description": "Windows-11-10.0.22631-SP0",
            "python_version": "3.12.3",
            "safety_command": "check"
        },
        "git": {
            "branch": "ci",
            "tag": "",
            "commit": "b055a9e95d4efc5d2b0e1dd51dbb21db5ada95f7",
            "dirty": false,
            "origin": "https://gitlab.com/gabrielpoletti/atividadesomativa2.git"
        },
        "project": null,
        "json_version": "1.1",
        "remediations_attempted": 0,
        "remediations_completed": 0,
        "remediation_mode": "NON_INTERACTIVE"
    },
    "scanned_packages": {},
    "affected_packages": {},
    "announcements": [],
    "vulnerabilities": [],
    "ignored_vulnerabilities": [],
    "remediations": {},
    "remediations_results": {
        "vulnerabilities_fixed": [],
        "remediations_applied": {},
        "remediations_skipped": {}
    }
}
